{
  "security_mechanism_id": "AAA",
  "security_mechanism_name": "aaa",
  "sm_description": "This security mechanisms aims at offering an easily set-up of a system for the management of user profile information and for the enforcement of access control policies, requiring only limited skills with authentication and authorization.",
  "security_capabilities": [
    "Authentication_Authorization_Auditing"
  ],
  "enforceable_metrics": [
    "aaa_log_completeness"
  ],
  "monitorable_metrics": [
    "aaa_log_completeness"
  ],
  "measurements": [
    {
      "msr_id": "aaa_log_completeness",
      "msr_description": "AAA log completeness.",
      "frequency": "1h",
      "metrics": [
        "aaa_log_completeness"
      ],
      "monitoring_event": {
        "event_id": "aaa_log_completeness",
        "event_description": "The completeness of aaa log.",
        "event_type": "VIOLATION",
        "condition": {
          "operator": "lt",
          "threshold": "metric:aaa_log_completeness"
        }
      }
    }
  ],
  "metadata": {
    "components": [
      {
        "component_name": "aaa",
        "component_type": "Authentication_Authorization_Auditing",
        "recipe": "aaa",
        "cookbook": "AAA",
        "implementation_step": 1,
        "pool_seq_num": 1,
        "pool_id": "aaa",
        "vm_requirement": {
          "hardware": "t1_micro",
          "usage": "50",
          "acquire_public_ip": "false",
          "private_ips_count": 1,
          "firewall": {
            "incoming": {
              "source_ips": [],
              "source_nodes": [
                "aaa"
              ],
              "interface": "private:1",
              "proto": [
                "TCP"
              ],
              "port_list": [
                "8080"
              ]
            },
            "outcoming": {
              "destination_ips": [
                "0.0.0.0/0"
              ],
              "destination_nodes": [],
              "interface": "public,private:1",
              "proto": [
                "TCP"
              ],
              "port_list": [
                "*"
              ]
            }
          }
        }
      }
    ],
    "constraints": []
  },
  "remediation": {
    "remediation_actions": [],
    "remediation_flow": []
  },
  "chef_recipes": [
    {
      "name": "aaa",
      "recipe_description": "Install Apache Tomcat v7 and AAA component.",
      "associated_metrics": [],
      "associated_measurements": [],
      "dependent_components": []
    }
  ]
}